Biologist's bioinformatics notes
…
4   ARCT            1          5            4          6 AR3 CT4
5   COCZ            1          2            1          2 CO5 CZ2
================================================================
Here is the solution and output:
================================================================
df %>%
    rename_with(~str_remove_all(.,"[em]*ales|Env")) %>%
    pivot_longer(names_sep="_",values_to="count", names_to=c("Env","sex"),-c(Family,P1,P2)) %>%
    uncount(count) %>%
    group_by(Family) %>%
    mutate(id = str_c(Family,"_",row_number())) %>%
    ungroup %>%
    select(-Family) %>%
    relocate(id)
# A tibble: 63 x 5
   id      P1    P2    Env   sex  
   <chr>   <chr> <chr> <chr> <chr>
 1 AKCO_1  AK4   CO1   1     F    
 2 AKCO_2  AK4   CO1   1     F    
 3 AKCO_3  AK4   CO1   1     M    
 4 AKCO_4  AK4   CO1   1     M    
 5 AKCO_5  AK4   CO1   1     M    
 6 AKCO_6  AK4   CO1   1     M    
 7 AKCO_7  AK4   CO1   2     F    
 8 AKCO_8  AK4   CO1   2     F    
 9 AKCO_9  AK4   CO1   2     F    
10 AKCO_10 AK4   CO1   2     F    
# … with 53 more rows
…
